# Text File

###############################################################
#  TITRE: 
#
#  AUTEUR:   Xavier
#  VERSION: 
#  CREATION:  
#  MODIFIE: 
#
#  DESCRIPTION: 
###############################################################


Bonjour xavier

au revoir !
